<?xml version="1.0" encoding="utf-8"?>
<!-- Generator: Adobe Illustrator 15.0.0, SVG Export Plug-In . SVG Version: 6.00 Build 0)  -->
<!DOCTYPE svg PUBLIC "-//W3C//DTD SVG 1.1//EN" "http://www.w3.org/Graphics/SVG/1.1/DTD/svg11.dtd">
<svg version="1.1" xmlns="http://www.w3.org/2000/svg" xmlns:xlink="http://www.w3.org/1999/xlink" x="0px" y="0px" width="20px"
	 height="20px" viewBox="0 0 20 20" enable-background="new 0 0 20 20" xml:space="preserve">
<g id="Layer_1" display="none">
	<g display="inline">
		<path fill-rule="evenodd" clip-rule="evenodd" fill="#6F8787" d="M18.88,4.767c0.081,1.09,0.807,1.532,0.638,2.871
			c-2.956,1.202-4.776-1.062-6.379-2.232c-2.024,0.102-4.522-0.271-6.06,0.319c-1.275,1.221-3.342,3.18-6.059,1.913
			c0.168-1.214,0.664-2.099,0.957-3.19C6.651,2.836,14.646,2.561,18.88,4.767z"/>
		<path fill-rule="evenodd" clip-rule="evenodd" fill="#6F8787" d="M6.761,7c2.48-0.567,1.724,2.104,4.465,1.275
			c1.079-0.09,0.339-2.001,2.233-1.275c1.321-0.26,0.158,1.966,0.955,2.232c1.385,2.654,3.735,4.345,3.19,8.931
			c-4.783,0-9.568,0-14.352,0C2.385,12.405,6.43,11.559,6.761,7z M7.717,10.508c0.319,0,0.638,0,0.957,0
			c0.04-0.573-0.316-0.747-0.957-0.638C7.717,10.083,7.717,10.295,7.717,10.508z M9.631,10.508c0.565-0.072,1.597,0.321,1.275-0.638
			c-0.425,0-0.851,0-1.275,0C9.631,10.083,9.631,10.295,9.631,10.508z M11.863,10.508c0.564-0.072,1.597,0.321,1.275-0.638
			c-0.425,0-0.851,0-1.275,0C11.863,10.083,11.863,10.295,11.863,10.508z M7.717,12.103c0.319,0,0.638,0,0.957,0
			c0-0.319,0-0.638,0-0.957c-0.319,0-0.638,0-0.957,0C7.717,11.465,7.717,11.783,7.717,12.103z M9.631,11.783
			c0.424,0.415,1.187,0.42,1.275-0.318C10.482,11.05,9.72,11.044,9.631,11.783z M13.139,12.103c0.097-0.84-0.441-1.047-1.275-0.957
			C11.543,12.21,12.306,12.192,13.139,12.103z M7.717,13.697c0.319,0,0.638,0,0.957,0c0-0.319,0-0.638,0-0.957
			c-0.319,0-0.638,0-0.957,0C7.717,13.06,7.717,13.378,7.717,13.697z M10.906,12.74c-0.425,0-0.851,0-1.275,0
			C9.125,14.223,11.279,13.848,10.906,12.74z M13.139,13.06c-0.06-0.473-0.77-0.292-1.275-0.319
			C11.182,13.913,13.487,14.179,13.139,13.06z"/>
		<path fill-rule="evenodd" clip-rule="evenodd" fill="#6F8787" d="M14.734,7.638c1.321,0.484,2.807,0.806,4.783,0.638
			C19.973,11.699,13.962,10.271,14.734,7.638z"/>
		<path fill-rule="evenodd" clip-rule="evenodd" fill="#6F8787" d="M5.804,7.957c0.14,1.202-0.63,1.497-0.957,2.232
			c-1.17,0-2.34,0-3.509,0C1.346,9.438,0.789,9.25,1.021,8.275C2.868,8.748,3.973,8.232,5.804,7.957z"/>
	</g>
</g>
<g id="Layer_2" display="none">
	<g display="inline">
		<path fill-rule="evenodd" clip-rule="evenodd" fill="#6F8787" d="M11.108,12.373c-0.972,0.818-1.796,1.893-3.543,1.359
			C3.174,12.4,8.218,2.487,13.562,6.375c0.159,2.114-1.122,4.077-0.271,5.998c4.179-1.223,2.26-7.423-0.272-8.452
			C3.94,0.248,0.565,16.197,9.745,16.188c1.207,0,2.414-1.059,3.545-0.271c-0.584,1.785-3.007,1.648-3.817,1.635
			C2.552,17.441,0.417,8.497,5.111,4.195c3.745-3.435,11.84-2.453,12.268,3.817C17.685,12.459,13.66,15.688,11.108,12.373z
			 M8.112,11.281c0.393,0.152,0.661,0.424,0.816,0.818c2.036-0.236,2.233-2.307,2.456-4.36C9.557,7.155,7.882,8.92,8.112,11.281z"/>
	</g>
</g>
<g id="Layer_3">
	<g>
		<path fill-rule="evenodd" clip-rule="evenodd" fill="#6F8787" d="M17.425,4.304c0,3.718,0,7.431,0,11.148
			c-5.008,0-10.017,0-15.026,0c0-3.475,0-6.947,0-10.422C2.388,4.617,2.579,4.403,2.885,4.304
			C7.731,4.304,12.578,4.304,17.425,4.304z M10.154,11.332c2.164-2.117,4.434-4.128,6.302-6.544C12.174,4.95,7.247,4.467,3.369,5.03
			C5.812,6.95,7.509,9.615,10.154,11.332z M2.885,14.484c1.433-0.831,3.612-3.01,4.847-4.85C5.881,8.416,4.915,6.312,2.885,5.272
			C2.885,8.345,2.885,11.411,2.885,14.484z M14.519,7.697c-0.046,0.043-2.453,1.767-2.425,2.422
			c0.013,0.319,3.374,3.399,3.636,3.636c0.36,0.33,0.865,1.123,1.211,0.486c0.491-0.906-0.207-8.108-0.242-8.969
			C15.782,6.298,15.527,6.687,14.519,7.697z M7.972,10.363c-1.6,1.549-3.397,2.902-4.603,4.847c4.362,0,8.725,0,13.087,0
			c-0.588-1.514-3.169-3.13-4.362-4.847c-1.133,0.078-1.049,1.374-2.182,1.454C9.088,11.51,8.993,10.474,7.972,10.363z"/>
	</g>
</g>
</svg>
