<?xml version="1.0" encoding="utf-8"?>
<!-- Generator: Adobe Illustrator 15.0.0, SVG Export Plug-In . SVG Version: 6.00 Build 0)  -->
<!DOCTYPE svg PUBLIC "-//W3C//DTD SVG 1.1//EN" "http://www.w3.org/Graphics/SVG/1.1/DTD/svg11.dtd">
<svg version="1.1" id="Layer_1" xmlns="http://www.w3.org/2000/svg" xmlns:xlink="http://www.w3.org/1999/xlink" x="0px" y="0px"
	 width="40px" height="40px" viewBox="0 0 40 40" enable-background="new 0 0 40 40" xml:space="preserve">
<g>
	<g>
		<path fill-rule="evenodd" clip-rule="evenodd" fill="#6F8787" d="M8.081,4.793c1.613-0.256,4.125-0.076,6.158-0.076
			c3.898,0,7.838,0,12.012,0c1.889,0,4.809-0.17,5.934,0.229c1.076,0.379,2.238,1.389,2.662,2.812
			c0.465,1.578,0.146,4.113,0.146,6.084c0,3.656,0,8.484,0,12.468c0,1.9,0.312,4.557-0.146,6.008
			c-0.32,1.002-1.252,1.961-2.207,2.355c-1.377,0.572-4.094,0.307-6.084,0.307c-5.502,0-10.402,0-15.814,0
			c-1.305,0-2.393,0-3.193-0.307c-1.137-0.436-2.094-1.43-2.584-2.736c-0.482-1.287-0.152-4.387-0.152-6.082
			c0-3.529,0-8.748,0-12.47c0-1.334-0.15-5.039,0.227-6.08C5.485,6.069,6.573,5.034,8.081,4.793z M31.12,4.946
			c-1.307-0.188-2.518,0.018-3.955,0c-5.619-0.066-13.781-0.139-17.867,0c-0.434,0.014-1.506,0.012-1.902,0.15
			C6.583,5.385,5.8,6.225,5.649,6.924c0.951-2.254,4.016-1.764,7.068-1.75c4.01,0.016,9.529-0.078,13.914-0.078
			c2.23,0,4.162-0.164,5.627,0.305C31.925,5.079,31.544,5.008,31.12,4.946z M25.72,8.063c-2.918,0.215-4.592,1.51-4.791,4.26
			c-0.043,0.639,0.199,1.451-0.303,2.127c-0.654,0.209-1.83-0.107-2.281,0.303c-0.273,0.584-0.17,1.887-0.076,2.586
			c0.703,0.135,1.619,0.059,2.434,0.078c0.35,1.006,0.227,2.195,0.227,3.344c0,3.515-0.117,7.373,0.152,10.568
			c1.521,0,3.043,0,4.564,0c0.047-4.611-0.102-9.426,0.074-13.912c1.043-0.051,2.279,0.096,3.195-0.078c0-0.887,0-1.775,0-2.66
			c-0.443-0.219-1.121-0.133-1.75-0.15c-0.666-0.021-1.166-0.078-1.52-0.381c-0.438-2.479,0.92-3.078,3.117-2.664
			c0-1.09,0-2.178,0-3.268C27.856,8.02,26.7,7.991,25.72,8.063z M26.177,12.399c0.256-1.098,2.529-0.018,2.889-0.838
			c-0.02-0.061-0.002-0.15-0.076-0.152C28.413,12.018,25.956,11.092,26.177,12.399z M29.065,17.338
			c-0.779,0.439-1.605,0.264-2.434,0.305c-0.109,0.006-0.717-0.299-0.607,0.154c0.861,0.008,1.906,0.01,2.965,0
			c0.023-0.18,0.264-0.145,0.23-0.381C29.2,17.356,29.153,17.327,29.065,17.338z M17.888,17.719c0.295,0.113,0.74,0.072,1.219,0.078
			c0.393,0,0.973,0.121,1.139-0.154C19.339,17.68,18.679,17.532,17.888,17.719z M20.776,31.711c0.73,0.129,1.668,0.072,2.588,0.072
			c0.908,0,1.922,0.156,2.508-0.227c-0.01-0.09,0.014-0.217-0.076-0.229C24.245,31.986,22.558,31.365,20.776,31.711z"/>
	</g>
</g>
</svg>
